module gitlab.com/blankspace9/grpc-auth

go 1.21.6

require (
	github.com/brianvoe/gofakeit/v6 v6.28.0
	github.com/golang-jwt/jwt/v5 v5.2.0
	github.com/golang-migrate/migrate/v4 v4.17.0
	github.com/ilyakaznacheev/cleanenv v1.5.0
	github.com/joho/godotenv v1.5.1
	github.com/lib/pq v1.10.9
	github.com/stretchr/testify v1.8.4
	gitlab.com/blankspace9/protos v0.0.18
	golang.org/x/crypto v0.19.0
	google.golang.org/grpc v1.62.0
)

require (
	github.com/BurntSushi/toml v1.2.1 // indirect
	github.com/asaskevich/govalidator v0.0.0-20230301143203-a9d515a09cc2 // indirect
	github.com/davecgh/go-spew v1.1.1 // indirect
	github.com/golang/freetype v0.0.0-20170609003504-e2365dfdc4a0 // indirect
	github.com/golang/protobuf v1.5.3 // indirect
	github.com/google/uuid v1.6.0 // indirect
	github.com/hashicorp/errwrap v1.1.0 // indirect
	github.com/hashicorp/go-multierror v1.1.1 // indirect
	github.com/mojocn/base64Captcha v1.3.6 // indirect
	github.com/pmezard/go-difflib v1.0.0 // indirect
	go.uber.org/atomic v1.7.0 // indirect
	golang.org/x/image v0.13.0 // indirect
	golang.org/x/net v0.21.0 // indirect
	golang.org/x/sys v0.17.0 // indirect
	golang.org/x/text v0.14.0 // indirect
	google.golang.org/genproto/googleapis/rpc v0.0.0-20240221002015-b0ce06bbee7c // indirect
	google.golang.org/protobuf v1.32.0 // indirect
	gopkg.in/alexcesaro/quotedprintable.v3 v3.0.0-20150716171945-2caba252f4dc // indirect
	gopkg.in/gomail.v2 v2.0.0-20160411212932-81ebce5c23df // indirect
	gopkg.in/yaml.v3 v3.0.1 // indirect
	olympos.io/encoding/edn v0.0.0-20201019073823-d3554ca0b0a3 // indirect
)
